^C:\USERS\MASTER\DOCUMENTS\REPOGRAFICAS\COMPUTER GRAPHICS\HERRAMENTALES.CPP
/c /I"C:\USERS\MASTER\DOCUMENTS\REPOGRAFICAS\COMPUTER GRAPHICS\INCLUDE\\" /IC:\USERS\MASTER\DOCUMENTS\REPOGRAFICAS\MATH\INCLUDE\ /IC:\USERS\MASTER\DOCUMENTS\REPOGRAFICAS\UTIL\INCLUDE\ /ZI /JMC /nologo /W3 /WX- /diagnostics:classic /sdl /Od /Oy- /D _MBCS /Gm- /EHsc /RTC1 /MDd /GS /fp:precise /permissive- /Zc:wchar_t /Zc:forScope /Zc:inline /Fo"C:\USERS\MASTER\DOCUMENTS\REPOGRAFICAS\BIN\COMPUTER GRAPHICS\INTERMEDIATES\\" /Fd"C:\USERS\MASTER\DOCUMENTS\REPOGRAFICAS\BIN\COMPUTER GRAPHICS\INTERMEDIATES\VC141.PDB" /Gd /TP /analyze- /FC C:\USERS\MASTER\DOCUMENTS\REPOGRAFICAS\COMPUTER GRAPHICS\HERRAMENTALES.CPP
^C:\USERS\MASTER\DOCUMENTS\REPOGRAFICAS\COMPUTER GRAPHICS\SRC\SCENE_CHAIKIN.CPP
/c /I"C:\USERS\MASTER\DOCUMENTS\REPOGRAFICAS\COMPUTER GRAPHICS\INCLUDE\\" /IC:\USERS\MASTER\DOCUMENTS\REPOGRAFICAS\MATH\INCLUDE\ /IC:\USERS\MASTER\DOCUMENTS\REPOGRAFICAS\UTIL\INCLUDE\ /ZI /JMC /nologo /W3 /WX- /diagnostics:classic /sdl /Od /Oy- /D _MBCS /Gm- /EHsc /RTC1 /MDd /GS /fp:precise /permissive- /Zc:wchar_t /Zc:forScope /Zc:inline /Fo"C:\USERS\MASTER\DOCUMENTS\REPOGRAFICAS\BIN\COMPUTER GRAPHICS\INTERMEDIATES\\" /Fd"C:\USERS\MASTER\DOCUMENTS\REPOGRAFICAS\BIN\COMPUTER GRAPHICS\INTERMEDIATES\VC141.PDB" /Gd /TP /analyze- /FC C:\USERS\MASTER\DOCUMENTS\REPOGRAFICAS\COMPUTER GRAPHICS\SRC\SCENE_CHAIKIN.CPP
^C:\USERS\MASTER\DOCUMENTS\REPOGRAFICAS\COMPUTER GRAPHICS\SRC\MAIN.CPP
/c /I"C:\USERS\MASTER\DOCUMENTS\REPOGRAFICAS\COMPUTER GRAPHICS\INCLUDE\\" /IC:\USERS\MASTER\DOCUMENTS\REPOGRAFICAS\MATH\INCLUDE\ /IC:\USERS\MASTER\DOCUMENTS\REPOGRAFICAS\UTIL\INCLUDE\ /ZI /JMC /nologo /W3 /WX- /diagnostics:classic /sdl /Od /Oy- /D _MBCS /Gm- /EHsc /RTC1 /MDd /GS /fp:precise /permissive- /Zc:wchar_t /Zc:forScope /Zc:inline /Fo"C:\USERS\MASTER\DOCUMENTS\REPOGRAFICAS\BIN\COMPUTER GRAPHICS\INTERMEDIATES\\" /Fd"C:\USERS\MASTER\DOCUMENTS\REPOGRAFICAS\BIN\COMPUTER GRAPHICS\INTERMEDIATES\VC141.PDB" /Gd /TP /analyze- /FC C:\USERS\MASTER\DOCUMENTS\REPOGRAFICAS\COMPUTER GRAPHICS\SRC\MAIN.CPP
^C:\USERS\MASTER\DOCUMENTS\REPOGRAFICAS\COMPUTER GRAPHICS\SRC\SCENE_CIRCLE.CPP
/c /I"C:\USERS\MASTER\DOCUMENTS\REPOGRAFICAS\COMPUTER GRAPHICS\INCLUDE\\" /IC:\USERS\MASTER\DOCUMENTS\REPOGRAFICAS\MATH\INCLUDE\ /IC:\USERS\MASTER\DOCUMENTS\REPOGRAFICAS\UTIL\INCLUDE\ /ZI /JMC /nologo /W3 /WX- /diagnostics:classic /sdl /Od /Oy- /D _MBCS /Gm- /EHsc /RTC1 /MDd /GS /fp:precise /permissive- /Zc:wchar_t /Zc:forScope /Zc:inline /Fo"C:\USERS\MASTER\DOCUMENTS\REPOGRAFICAS\BIN\COMPUTER GRAPHICS\INTERMEDIATES\\" /Fd"C:\USERS\MASTER\DOCUMENTS\REPOGRAFICAS\BIN\COMPUTER GRAPHICS\INTERMEDIATES\VC141.PDB" /Gd /TP /analyze- /FC C:\USERS\MASTER\DOCUMENTS\REPOGRAFICAS\COMPUTER GRAPHICS\SRC\SCENE_CIRCLE.CPP
^C:\USERS\MASTER\DOCUMENTS\REPOGRAFICAS\COMPUTER GRAPHICS\SRC\SCENE_CIRCLE_GRID.CPP
/c /I"C:\USERS\MASTER\DOCUMENTS\REPOGRAFICAS\COMPUTER GRAPHICS\INCLUDE\\" /IC:\USERS\MASTER\DOCUMENTS\REPOGRAFICAS\MATH\INCLUDE\ /IC:\USERS\MASTER\DOCUMENTS\REPOGRAFICAS\UTIL\INCLUDE\ /ZI /JMC /nologo /W3 /WX- /diagnostics:classic /sdl /Od /Oy- /D _MBCS /Gm- /EHsc /RTC1 /MDd /GS /fp:precise /permissive- /Zc:wchar_t /Zc:forScope /Zc:inline /Fo"C:\USERS\MASTER\DOCUMENTS\REPOGRAFICAS\BIN\COMPUTER GRAPHICS\INTERMEDIATES\\" /Fd"C:\USERS\MASTER\DOCUMENTS\REPOGRAFICAS\BIN\COMPUTER GRAPHICS\INTERMEDIATES\VC141.PDB" /Gd /TP /analyze- /FC C:\USERS\MASTER\DOCUMENTS\REPOGRAFICAS\COMPUTER GRAPHICS\SRC\SCENE_CIRCLE_GRID.CPP
^C:\USERS\MASTER\DOCUMENTS\REPOGRAFICAS\COMPUTER GRAPHICS\SRC\SCENE_CONCHOID.CPP
/c /I"C:\USERS\MASTER\DOCUMENTS\REPOGRAFICAS\COMPUTER GRAPHICS\INCLUDE\\" /IC:\USERS\MASTER\DOCUMENTS\REPOGRAFICAS\MATH\INCLUDE\ /IC:\USERS\MASTER\DOCUMENTS\REPOGRAFICAS\UTIL\INCLUDE\ /ZI /JMC /nologo /W3 /WX- /diagnostics:classic /sdl /Od /Oy- /D _MBCS /Gm- /EHsc /RTC1 /MDd /GS /fp:precise /permissive- /Zc:wchar_t /Zc:forScope /Zc:inline /Fo"C:\USERS\MASTER\DOCUMENTS\REPOGRAFICAS\BIN\COMPUTER GRAPHICS\INTERMEDIATES\\" /Fd"C:\USERS\MASTER\DOCUMENTS\REPOGRAFICAS\BIN\COMPUTER GRAPHICS\INTERMEDIATES\VC141.PDB" /Gd /TP /analyze- /FC C:\USERS\MASTER\DOCUMENTS\REPOGRAFICAS\COMPUTER GRAPHICS\SRC\SCENE_CONCHOID.CPP
^C:\USERS\MASTER\DOCUMENTS\REPOGRAFICAS\COMPUTER GRAPHICS\SRC\SCENE_COMPATIBILITY.CPP
/c /I"C:\USERS\MASTER\DOCUMENTS\REPOGRAFICAS\COMPUTER GRAPHICS\INCLUDE\\" /IC:\USERS\MASTER\DOCUMENTS\REPOGRAFICAS\MATH\INCLUDE\ /IC:\USERS\MASTER\DOCUMENTS\REPOGRAFICAS\UTIL\INCLUDE\ /ZI /JMC /nologo /W3 /WX- /diagnostics:classic /sdl /Od /Oy- /D _MBCS /Gm- /EHsc /RTC1 /MDd /GS /fp:precise /permissive- /Zc:wchar_t /Zc:forScope /Zc:inline /Fo"C:\USERS\MASTER\DOCUMENTS\REPOGRAFICAS\BIN\COMPUTER GRAPHICS\INTERMEDIATES\\" /Fd"C:\USERS\MASTER\DOCUMENTS\REPOGRAFICAS\BIN\COMPUTER GRAPHICS\INTERMEDIATES\VC141.PDB" /Gd /TP /analyze- /FC C:\USERS\MASTER\DOCUMENTS\REPOGRAFICAS\COMPUTER GRAPHICS\SRC\SCENE_COMPATIBILITY.CPP
^C:\USERS\MASTER\DOCUMENTS\REPOGRAFICAS\COMPUTER GRAPHICS\SRC\SCENE_PRIMITIVES.CPP
/c /I"C:\USERS\MASTER\DOCUMENTS\REPOGRAFICAS\COMPUTER GRAPHICS\INCLUDE\\" /IC:\USERS\MASTER\DOCUMENTS\REPOGRAFICAS\MATH\INCLUDE\ /IC:\USERS\MASTER\DOCUMENTS\REPOGRAFICAS\UTIL\INCLUDE\ /ZI /JMC /nologo /W3 /WX- /diagnostics:classic /sdl /Od /Oy- /D _MBCS /Gm- /EHsc /RTC1 /MDd /GS /fp:precise /permissive- /Zc:wchar_t /Zc:forScope /Zc:inline /Fo"C:\USERS\MASTER\DOCUMENTS\REPOGRAFICAS\BIN\COMPUTER GRAPHICS\INTERMEDIATES\\" /Fd"C:\USERS\MASTER\DOCUMENTS\REPOGRAFICAS\BIN\COMPUTER GRAPHICS\INTERMEDIATES\VC141.PDB" /Gd /TP /analyze- /FC C:\USERS\MASTER\DOCUMENTS\REPOGRAFICAS\COMPUTER GRAPHICS\SRC\SCENE_PRIMITIVES.CPP
^C:\USERS\MASTER\DOCUMENTS\REPOGRAFICAS\COMPUTER GRAPHICS\SRC\SCENE_SPHERE.CPP
/c /I"C:\USERS\MASTER\DOCUMENTS\REPOGRAFICAS\COMPUTER GRAPHICS\INCLUDE\\" /IC:\USERS\MASTER\DOCUMENTS\REPOGRAFICAS\MATH\INCLUDE\ /IC:\USERS\MASTER\DOCUMENTS\REPOGRAFICAS\UTIL\INCLUDE\ /ZI /JMC /nologo /W3 /WX- /diagnostics:classic /sdl /Od /Oy- /D _MBCS /Gm- /EHsc /RTC1 /MDd /GS /fp:precise /permissive- /Zc:wchar_t /Zc:forScope /Zc:inline /Fo"C:\USERS\MASTER\DOCUMENTS\REPOGRAFICAS\BIN\COMPUTER GRAPHICS\INTERMEDIATES\\" /Fd"C:\USERS\MASTER\DOCUMENTS\REPOGRAFICAS\BIN\COMPUTER GRAPHICS\INTERMEDIATES\VC141.PDB" /Gd /TP /analyze- /FC C:\USERS\MASTER\DOCUMENTS\REPOGRAFICAS\COMPUTER GRAPHICS\SRC\SCENE_SPHERE.CPP
^C:\USERS\MASTER\DOCUMENTS\REPOGRAFICAS\COMPUTER GRAPHICS\SRC\SCENE_VERTEX.CPP
/c /I"C:\USERS\MASTER\DOCUMENTS\REPOGRAFICAS\COMPUTER GRAPHICS\INCLUDE\\" /IC:\USERS\MASTER\DOCUMENTS\REPOGRAFICAS\MATH\INCLUDE\ /IC:\USERS\MASTER\DOCUMENTS\REPOGRAFICAS\UTIL\INCLUDE\ /ZI /JMC /nologo /W3 /WX- /diagnostics:classic /sdl /Od /Oy- /D _MBCS /Gm- /EHsc /RTC1 /MDd /GS /fp:precise /permissive- /Zc:wchar_t /Zc:forScope /Zc:inline /Fo"C:\USERS\MASTER\DOCUMENTS\REPOGRAFICAS\BIN\COMPUTER GRAPHICS\INTERMEDIATES\\" /Fd"C:\USERS\MASTER\DOCUMENTS\REPOGRAFICAS\BIN\COMPUTER GRAPHICS\INTERMEDIATES\VC141.PDB" /Gd /TP /analyze- /FC C:\USERS\MASTER\DOCUMENTS\REPOGRAFICAS\COMPUTER GRAPHICS\SRC\SCENE_VERTEX.CPP
^C:\USERS\MASTER\DOCUMENTS\REPOGRAFICAS\COMPUTER GRAPHICS\SRC\SCENE_CUBE.CPP
/c /I"C:\USERS\MASTER\DOCUMENTS\REPOGRAFICAS\COMPUTER GRAPHICS\INCLUDE\\" /IC:\USERS\MASTER\DOCUMENTS\REPOGRAFICAS\MATH\INCLUDE\ /IC:\USERS\MASTER\DOCUMENTS\REPOGRAFICAS\UTIL\INCLUDE\ /ZI /JMC /nologo /W3 /WX- /diagnostics:classic /sdl /Od /Oy- /D _MBCS /Gm- /EHsc /RTC1 /MDd /GS /fp:precise /permissive- /Zc:wchar_t /Zc:forScope /Zc:inline /Fo"C:\USERS\MASTER\DOCUMENTS\REPOGRAFICAS\BIN\COMPUTER GRAPHICS\INTERMEDIATES\\" /Fd"C:\USERS\MASTER\DOCUMENTS\REPOGRAFICAS\BIN\COMPUTER GRAPHICS\INTERMEDIATES\VC141.PDB" /Gd /TP /analyze- /FC C:\USERS\MASTER\DOCUMENTS\REPOGRAFICAS\COMPUTER GRAPHICS\SRC\SCENE_CUBE.CPP
^C:\USERS\MASTER\DOCUMENTS\REPOGRAFICAS\COMPUTER GRAPHICS\SRC\SCENE_FRAGMENT.CPP
/c /I"C:\USERS\MASTER\DOCUMENTS\REPOGRAFICAS\COMPUTER GRAPHICS\INCLUDE\\" /IC:\USERS\MASTER\DOCUMENTS\REPOGRAFICAS\MATH\INCLUDE\ /IC:\USERS\MASTER\DOCUMENTS\REPOGRAFICAS\UTIL\INCLUDE\ /ZI /JMC /nologo /W3 /WX- /diagnostics:classic /sdl /Od /Oy- /D _MBCS /Gm- /EHsc /RTC1 /MDd /GS /fp:precise /permissive- /Zc:wchar_t /Zc:forScope /Zc:inline /Fo"C:\USERS\MASTER\DOCUMENTS\REPOGRAFICAS\BIN\COMPUTER GRAPHICS\INTERMEDIATES\\" /Fd"C:\USERS\MASTER\DOCUMENTS\REPOGRAFICAS\BIN\COMPUTER GRAPHICS\INTERMEDIATES\VC141.PDB" /Gd /TP /analyze- /FC C:\USERS\MASTER\DOCUMENTS\REPOGRAFICAS\COMPUTER GRAPHICS\SRC\SCENE_FRAGMENT.CPP
^C:\USERS\MASTER\DOCUMENTS\REPOGRAFICAS\COMPUTER GRAPHICS\SRC\SCENE_RAIN.CPP
/c /I"C:\USERS\MASTER\DOCUMENTS\REPOGRAFICAS\COMPUTER GRAPHICS\INCLUDE\\" /IC:\USERS\MASTER\DOCUMENTS\REPOGRAFICAS\MATH\INCLUDE\ /IC:\USERS\MASTER\DOCUMENTS\REPOGRAFICAS\UTIL\INCLUDE\ /ZI /JMC /nologo /W3 /WX- /diagnostics:classic /sdl /Od /Oy- /D _MBCS /Gm- /EHsc /RTC1 /MDd /GS /fp:precise /permissive- /Zc:wchar_t /Zc:forScope /Zc:inline /Fo"C:\USERS\MASTER\DOCUMENTS\REPOGRAFICAS\BIN\COMPUTER GRAPHICS\INTERMEDIATES\\" /Fd"C:\USERS\MASTER\DOCUMENTS\REPOGRAFICAS\BIN\COMPUTER GRAPHICS\INTERMEDIATES\VC141.PDB" /Gd /TP /analyze- /FC C:\USERS\MASTER\DOCUMENTS\REPOGRAFICAS\COMPUTER GRAPHICS\SRC\SCENE_RAIN.CPP
^C:\USERS\MASTER\DOCUMENTS\REPOGRAFICAS\COMPUTER GRAPHICS\SRC\SCENE_TEXTURE.CPP
/c /I"C:\USERS\MASTER\DOCUMENTS\REPOGRAFICAS\COMPUTER GRAPHICS\INCLUDE\\" /IC:\USERS\MASTER\DOCUMENTS\REPOGRAFICAS\MATH\INCLUDE\ /IC:\USERS\MASTER\DOCUMENTS\REPOGRAFICAS\UTIL\INCLUDE\ /ZI /JMC /nologo /W3 /WX- /diagnostics:classic /sdl /Od /Oy- /D _MBCS /Gm- /EHsc /RTC1 /MDd /GS /fp:precise /permissive- /Zc:wchar_t /Zc:forScope /Zc:inline /Fo"C:\USERS\MASTER\DOCUMENTS\REPOGRAFICAS\BIN\COMPUTER GRAPHICS\INTERMEDIATES\\" /Fd"C:\USERS\MASTER\DOCUMENTS\REPOGRAFICAS\BIN\COMPUTER GRAPHICS\INTERMEDIATES\VC141.PDB" /Gd /TP /analyze- /FC C:\USERS\MASTER\DOCUMENTS\REPOGRAFICAS\COMPUTER GRAPHICS\SRC\SCENE_TEXTURE.CPP
^C:\USERS\MASTER\DOCUMENTS\REPOGRAFICAS\COMPUTER GRAPHICS\SRC\SCENE_MANAGER.CPP
/c /I"C:\USERS\MASTER\DOCUMENTS\REPOGRAFICAS\COMPUTER GRAPHICS\INCLUDE\\" /IC:\USERS\MASTER\DOCUMENTS\REPOGRAFICAS\MATH\INCLUDE\ /IC:\USERS\MASTER\DOCUMENTS\REPOGRAFICAS\UTIL\INCLUDE\ /ZI /JMC /nologo /W3 /WX- /diagnostics:classic /sdl /Od /Oy- /D _MBCS /Gm- /EHsc /RTC1 /MDd /GS /fp:precise /permissive- /Zc:wchar_t /Zc:forScope /Zc:inline /Fo"C:\USERS\MASTER\DOCUMENTS\REPOGRAFICAS\BIN\COMPUTER GRAPHICS\INTERMEDIATES\\" /Fd"C:\USERS\MASTER\DOCUMENTS\REPOGRAFICAS\BIN\COMPUTER GRAPHICS\INTERMEDIATES\VC141.PDB" /Gd /TP /analyze- /FC C:\USERS\MASTER\DOCUMENTS\REPOGRAFICAS\COMPUTER GRAPHICS\SRC\SCENE_MANAGER.CPP
^C:\USERS\MASTER\DOCUMENTS\REPOGRAFICAS\COMPUTER GRAPHICS\SRC\SCENE_SNOW.CPP
/c /I"C:\USERS\MASTER\DOCUMENTS\REPOGRAFICAS\COMPUTER GRAPHICS\INCLUDE\\" /IC:\USERS\MASTER\DOCUMENTS\REPOGRAFICAS\MATH\INCLUDE\ /IC:\USERS\MASTER\DOCUMENTS\REPOGRAFICAS\UTIL\INCLUDE\ /ZI /JMC /nologo /W3 /WX- /diagnostics:classic /sdl /Od /Oy- /D _MBCS /Gm- /EHsc /RTC1 /MDd /GS /fp:precise /permissive- /Zc:wchar_t /Zc:forScope /Zc:inline /Fo"C:\USERS\MASTER\DOCUMENTS\REPOGRAFICAS\BIN\COMPUTER GRAPHICS\INTERMEDIATES\\" /Fd"C:\USERS\MASTER\DOCUMENTS\REPOGRAFICAS\BIN\COMPUTER GRAPHICS\INTERMEDIATES\VC141.PDB" /Gd /TP /analyze- /FC C:\USERS\MASTER\DOCUMENTS\REPOGRAFICAS\COMPUTER GRAPHICS\SRC\SCENE_SNOW.CPP
^C:\USERS\MASTER\DOCUMENTS\REPOGRAFICAS\COMPUTER GRAPHICS\SRC\SCENE_FIRE.CPP
/c /I"C:\USERS\MASTER\DOCUMENTS\REPOGRAFICAS\COMPUTER GRAPHICS\INCLUDE\\" /IC:\USERS\MASTER\DOCUMENTS\REPOGRAFICAS\MATH\INCLUDE\ /IC:\USERS\MASTER\DOCUMENTS\REPOGRAFICAS\UTIL\INCLUDE\ /ZI /JMC /nologo /W3 /WX- /diagnostics:classic /sdl /Od /Oy- /D _MBCS /Gm- /EHsc /RTC1 /MDd /GS /fp:precise /permissive- /Zc:wchar_t /Zc:forScope /Zc:inline /Fo"C:\USERS\MASTER\DOCUMENTS\REPOGRAFICAS\BIN\COMPUTER GRAPHICS\INTERMEDIATES\\" /Fd"C:\USERS\MASTER\DOCUMENTS\REPOGRAFICAS\BIN\COMPUTER GRAPHICS\INTERMEDIATES\VC141.PDB" /Gd /TP /analyze- /FC C:\USERS\MASTER\DOCUMENTS\REPOGRAFICAS\COMPUTER GRAPHICS\SRC\SCENE_FIRE.CPP
