^C:\USERS\MASTER\DOCUMENTS\REPOGRAFICAS\UTIL\SRC\IFILE.CPP|C:\USERS\MASTER\DOCUMENTS\REPOGRAFICAS\UTIL\SRC\IMAGE_WRITER.CPP|C:\USERS\MASTER\DOCUMENTS\REPOGRAFICAS\UTIL\SRC\TIME.CPP
C:\USERS\MASTER\DOCUMENTS\REPOGRAFICAS\BIN\UTIL\INTERMEDIATES\UTIL.PDB
C:\USERS\MASTER\DOCUMENTS\REPOGRAFICAS\BIN\UTIL\INTERMEDIATES\UTIL.IDB
C:\USERS\MASTER\DOCUMENTS\REPOGRAFICAS\BIN\UTIL\INTERMEDIATES\TIME.OBJ
C:\USERS\MASTER\DOCUMENTS\REPOGRAFICAS\BIN\UTIL\INTERMEDIATES\IFILE.OBJ
C:\USERS\MASTER\DOCUMENTS\REPOGRAFICAS\BIN\UTIL\INTERMEDIATES\IMAGE_WRITER.OBJ
^C:\USERS\MASTER\DOCUMENTS\REPOGRAFICAS\UTIL\SRC\IMAGE_WRITER.CPP
C:\USERS\MASTER\DOCUMENTS\REPOGRAFICAS\BIN\UTIL\INTERMEDIATES\UTIL.PDB
^C:\USERS\MASTER\DOCUMENTS\REPOGRAFICAS\UTIL\SRC\IFILE.CPP
C:\USERS\MASTER\DOCUMENTS\REPOGRAFICAS\BIN\UTIL\INTERMEDIATES\UTIL.PDB
^C:\USERS\MASTER\DOCUMENTS\REPOGRAFICAS\UTIL\SRC\TIME.CPP
C:\USERS\MASTER\DOCUMENTS\REPOGRAFICAS\BIN\UTIL\INTERMEDIATES\UTIL.PDB
